%YAML 1.1
%TAG !u! tag:unity3d.com,2011:
--- !u!1001 &7546175649546250997
PrefabInstance:
  m_ObjectHideFlags: 0
  serializedVersion: 2
  m_Modification:
    serializedVersion: 3
    m_TransformParent: {fileID: 0}
    m_Modifications:
    - target: {fileID: 100000, guid: 7977e423937da9b48aac1866c67bb5be, type: 3}
      propertyPath: m_Name
      value: Watermelon Variant
      objectReference: {fileID: 0}
    - target: {fileID: 100000, guid: 7977e423937da9b48aac1866c67bb5be, type: 3}
      propertyPath: m_TagString
      value: food
      objectReference: {fileID: 0}
    - target: {fileID: 400000, guid: 7977e423937da9b48aac1866c67bb5be, type: 3}
      propertyPath: m_LocalScale.x
      value: 10
      objectReference: {fileID: 0}
    - target: {fileID: 400000, guid: 7977e423937da9b48aac1866c67bb5be, type: 3}
      propertyPath: m_LocalScale.y
      value: 10
      objectReference: {fileID: 0}
    - target: {fileID: 400000, guid: 7977e423937da9b48aac1866c67bb5be, type: 3}
      propertyPath: m_LocalScale.z
      value: 10
      objectReference: {fileID: 0}
    - target: {fileID: 400000, guid: 7977e423937da9b48aac1866c67bb5be, type: 3}
      propertyPath: m_LocalPosition.x
      value: -0
      objectReference: {fileID: 0}
    - target: {fileID: 400000, guid: 7977e423937da9b48aac1866c67bb5be, type: 3}
      propertyPath: m_LocalPosition.y
      value: 0
      objectReference: {fileID: 0}
    - target: {fileID: 400000, guid: 7977e423937da9b48aac1866c67bb5be, type: 3}
      propertyPath: m_LocalPosition.z
      value: 0
      objectReference: {fileID: 0}
    - target: {fileID: 400000, guid: 7977e423937da9b48aac1866c67bb5be, type: 3}
      propertyPath: m_LocalRotation.w
      value: 1
      objectReference: {fileID: 0}
    - target: {fileID: 400000, guid: 7977e423937da9b48aac1866c67bb5be, type: 3}
      propertyPath: m_LocalRotation.x
      value: 0
      objectReference: {fileID: 0}
    - target: {fileID: 400000, guid: 7977e423937da9b48aac1866c67bb5be, type: 3}
      propertyPath: m_LocalRotation.y
      value: -0
      objectReference: {fileID: 0}
    - target: {fileID: 400000, guid: 7977e423937da9b48aac1866c67bb5be, type: 3}
      propertyPath: m_LocalRotation.z
      value: -0
      objectReference: {fileID: 0}
    - target: {fileID: 400000, guid: 7977e423937da9b48aac1866c67bb5be, type: 3}
      propertyPath: m_LocalEulerAnglesHint.x
      value: 0
      objectReference: {fileID: 0}
    - target: {fileID: 400000, guid: 7977e423937da9b48aac1866c67bb5be, type: 3}
      propertyPath: m_LocalEulerAnglesHint.y
      value: 0
      objectReference: {fileID: 0}
    - target: {fileID: 400000, guid: 7977e423937da9b48aac1866c67bb5be, type: 3}
      propertyPath: m_LocalEulerAnglesHint.z
      value: 0
      objectReference: {fileID: 0}
    m_RemovedComponents: []
    m_RemovedGameObjects: []
    m_AddedGameObjects: []
    m_AddedComponents:
    - targetCorrespondingSourceObject: {fileID: 100000, guid: 7977e423937da9b48aac1866c67bb5be,
        type: 3}
      insertIndex: -1
      addedObject: {fileID: -1314254200834234868}
    - targetCorrespondingSourceObject: {fileID: 100000, guid: 7977e423937da9b48aac1866c67bb5be,
        type: 3}
      insertIndex: -1
      addedObject: {fileID: -1841759612263609978}
  m_SourcePrefab: {fileID: 100100000, guid: 7977e423937da9b48aac1866c67bb5be, type: 3}
--- !u!1 &7546175649546349653 stripped
GameObject:
  m_CorrespondingSourceObject: {fileID: 100000, guid: 7977e423937da9b48aac1866c67bb5be,
    type: 3}
  m_PrefabInstance: {fileID: 7546175649546250997}
  m_PrefabAsset: {fileID: 0}
--- !u!65 &-1314254200834234868
BoxCollider:
  m_ObjectHideFlags: 0
  m_CorrespondingSourceObject: {fileID: 0}
  m_PrefabInstance: {fileID: 0}
  m_PrefabAsset: {fileID: 0}
  m_GameObject: {fileID: 7546175649546349653}
  m_Material: {fileID: 0}
  m_IncludeLayers:
    serializedVersion: 2
    m_Bits: 0
  m_ExcludeLayers:
    serializedVersion: 2
    m_Bits: 0
  m_LayerOverridePriority: 0
  m_IsTrigger: 0
  m_ProvidesContacts: 0
  m_Enabled: 1
  serializedVersion: 3
  m_Size: {x: 0.6907087, y: 0.2954241, z: 0.32987684}
  m_Center: {x: 0.0000013411045, y: 0.14771205, z: -0.000000007450581}
--- !u!54 &-1841759612263609978
Rigidbody:
  m_ObjectHideFlags: 0
  m_CorrespondingSourceObject: {fileID: 0}
  m_PrefabInstance: {fileID: 0}
  m_PrefabAsset: {fileID: 0}
  m_GameObject: {fileID: 7546175649546349653}
  serializedVersion: 4
  m_Mass: 50
  m_Drag: 0
  m_AngularDrag: 0.05
  m_CenterOfMass: {x: 0, y: 0, z: 0}
  m_InertiaTensor: {x: 1, y: 1, z: 1}
  m_InertiaRotation: {x: 0, y: 0, z: 0, w: 1}
  m_IncludeLayers:
    serializedVersion: 2
    m_Bits: 0
  m_ExcludeLayers:
    serializedVersion: 2
    m_Bits: 0
  m_ImplicitCom: 1
  m_ImplicitTensor: 1
  m_UseGravity: 1
  m_IsKinematic: 0
  m_Interpolate: 0
  m_Constraints: 0
  m_CollisionDetection: 0
