%YAML 1.1
%TAG !u! tag:unity3d.com,2011:
--- !u!114 &11400000
MonoBehaviour:
  m_ObjectHideFlags: 0
  m_CorrespondingSourceObject: {fileID: 0}
  m_PrefabInstance: {fileID: 0}
  m_PrefabAsset: {fileID: 0}
  m_GameObject: {fileID: 0}
  m_Enabled: 1
  m_EditorHideFlags: 0
  m_Script: {fileID: 11500000, guid: bbb281ee3bf0b054c82ac2347e9e782c, type: 3}
  m_Name: Localization-Locales
  m_EditorClassIdentifier: 
  m_GroupName: Localization-Locales
  m_Data:
    m_SerializedData: []
  m_GUID: fba705213bde5044d80cae4c8153c0c4
  m_SerializeEntries:
  - m_GUID: daf7c6c608b4115469d067ea386243e8
    m_Address: German (de)
    m_ReadOnly: 1
    m_SerializedLabels:
    - Locale
    FlaggedDuringContentUpdateRestriction: 0
  - m_GUID: bec7bc0a967b8b244b4e448ee9b38594
    m_Address: English (en)
    m_ReadOnly: 1
    m_SerializedLabels:
    - Locale
    FlaggedDuringContentUpdateRestriction: 0
  - m_GUID: cd673118615b9b044919d8a4c9dbdc01
    m_Address: French (fr)
    m_ReadOnly: 1
    m_SerializedLabels:
    - Locale
    FlaggedDuringContentUpdateRestriction: 0
  - m_GUID: 5e3df9f8a74a1544daafce5e0ecffe20
    m_Address: Spanish (es)
    m_ReadOnly: 1
    m_SerializedLabels:
    - Locale
    FlaggedDuringContentUpdateRestriction: 0
  - m_GUID: 4febd4d374d58a74997a1ec1096a7881
    m_Address: Portuguese (pt)
    m_ReadOnly: 1
    m_SerializedLabels:
    - Locale
    FlaggedDuringContentUpdateRestriction: 0
  m_ReadOnly: 1
  m_Settings: {fileID: 11400000, guid: 22624bc9db0f72048a568cc4b875efe3, type: 2}
  m_SchemaSet:
    m_Schemas:
    - {fileID: 11400000, guid: f70ff3904aae93d46bf099e9af28a603, type: 2}
    - {fileID: 11400000, guid: ebff14b139cb7164892a09bdd305593a, type: 2}
