%YAML 1.1
%TAG !u! tag:unity3d.com,2011:
--- !u!114 &11400000
MonoBehaviour:
  m_ObjectHideFlags: 0
  m_CorrespondingSourceObject: {fileID: 0}
  m_PrefabInstance: {fileID: 0}
  m_PrefabAsset: {fileID: 0}
  m_GameObject: {fileID: 0}
  m_Enabled: 1
  m_EditorHideFlags: 0
  m_Script: {fileID: 11500000, guid: bbb281ee3bf0b054c82ac2347e9e782c, type: 3}
  m_Name: Localization-String-Tables-Portuguese (pt)
  m_EditorClassIdentifier: 
  m_GroupName: Localization-String-Tables-Portuguese (pt)
  m_Data:
    m_SerializedData: []
  m_GUID: 9fe2f63aaba75ad4791fcfe8fd0d5e8f
  m_SerializeEntries:
  - m_GUID: 0753048c39f346840925f67cedb1c060
    m_Address: StringTable_pt
    m_ReadOnly: 1
    m_SerializedLabels:
    - Locale-pt
    FlaggedDuringContentUpdateRestriction: 0
  m_ReadOnly: 1
  m_Settings: {fileID: 11400000, guid: 22624bc9db0f72048a568cc4b875efe3, type: 2}
  m_SchemaSet:
    m_Schemas:
    - {fileID: 11400000, guid: c4c042791a49af5499e599e47c788fd7, type: 2}
    - {fileID: 11400000, guid: 2aa6395a553462e418bbf337bf1020a6, type: 2}
