%YAML 1.1
%TAG !u! tag:unity3d.com,2011:
--- !u!114 &11400000
MonoBehaviour:
  m_ObjectHideFlags: 0
  m_CorrespondingSourceObject: {fileID: 0}
  m_PrefabInstance: {fileID: 0}
  m_PrefabAsset: {fileID: 0}
  m_GameObject: {fileID: 0}
  m_Enabled: 1
  m_EditorHideFlags: 0
  m_Script: {fileID: 11500000, guid: bbb281ee3bf0b054c82ac2347e9e782c, type: 3}
  m_Name: Localization-String-Tables-French (fr)
  m_EditorClassIdentifier: 
  m_GroupName: Localization-String-Tables-French (fr)
  m_Data:
    m_SerializedData: []
  m_GUID: 041da2174e21d4143a97f2567af17966
  m_SerializeEntries:
  - m_GUID: 5f0bad70b49541c4eac9ee1d0926a8f9
    m_Address: StringTable_fr
    m_ReadOnly: 1
    m_SerializedLabels:
    - Locale-fr
    FlaggedDuringContentUpdateRestriction: 0
  m_ReadOnly: 1
  m_Settings: {fileID: 11400000, guid: 22624bc9db0f72048a568cc4b875efe3, type: 2}
  m_SchemaSet:
    m_Schemas:
    - {fileID: 11400000, guid: 106871244e83c2741ab52bee89a75eec, type: 2}
    - {fileID: 11400000, guid: acff8c22098d0a942a866a397dd25a0e, type: 2}
