%YAML 1.1
%TAG !u! tag:unity3d.com,2011:
--- !u!114 &11400000
MonoBehaviour:
  m_ObjectHideFlags: 0
  m_CorrespondingSourceObject: {fileID: 0}
  m_PrefabInstance: {fileID: 0}
  m_PrefabAsset: {fileID: 0}
  m_GameObject: {fileID: 0}
  m_Enabled: 1
  m_EditorHideFlags: 0
  m_Script: {fileID: 11500000, guid: bbb281ee3bf0b054c82ac2347e9e782c, type: 3}
  m_Name: Localization-Assets-English (en)
  m_EditorClassIdentifier: 
  m_GroupName: Localization-Assets-English (en)
  m_Data:
    m_SerializedData: []
  m_GUID: 00f95fb42fad3c84fb5c8989e8b4ac0d
  m_SerializeEntries:
  - m_GUID: 5a731d4e89178754294aa9e4c8237887
    m_Address: Burger King - Tuto Screen - Eng
    m_ReadOnly: 1
    m_SerializedLabels:
    - Locale-en
    FlaggedDuringContentUpdateRestriction: 0
  m_ReadOnly: 1
  m_Settings: {fileID: 11400000, guid: 22624bc9db0f72048a568cc4b875efe3, type: 2}
  m_SchemaSet:
    m_Schemas:
    - {fileID: 11400000, guid: 0e9349423427a724a9c988735e313bac, type: 2}
    - {fileID: 11400000, guid: ad53d71e252eb694e9cfb11da230a606, type: 2}
