%YAML 1.1
%TAG !u! tag:unity3d.com,2011:
--- !u!1001 &8709617074807554832
PrefabInstance:
  m_ObjectHideFlags: 0
  serializedVersion: 2
  m_Modification:
    serializedVersion: 3
    m_TransformParent: {fileID: 0}
    m_Modifications:
    - target: {fileID: -8679921383154817045, guid: 057b7e8402d79464c8edf68b1f2ef819,
        type: 3}
      propertyPath: m_LocalPosition.x
      value: -0
      objectReference: {fileID: 0}
    - target: {fileID: -8679921383154817045, guid: 057b7e8402d79464c8edf68b1f2ef819,
        type: 3}
      propertyPath: m_LocalPosition.y
      value: 0
      objectReference: {fileID: 0}
    - target: {fileID: -8679921383154817045, guid: 057b7e8402d79464c8edf68b1f2ef819,
        type: 3}
      propertyPath: m_LocalPosition.z
      value: 0
      objectReference: {fileID: 0}
    - target: {fileID: -8679921383154817045, guid: 057b7e8402d79464c8edf68b1f2ef819,
        type: 3}
      propertyPath: m_LocalRotation.w
      value: 0.7071068
      objectReference: {fileID: 0}
    - target: {fileID: -8679921383154817045, guid: 057b7e8402d79464c8edf68b1f2ef819,
        type: 3}
      propertyPath: m_LocalRotation.x
      value: -0.7071068
      objectReference: {fileID: 0}
    - target: {fileID: -8679921383154817045, guid: 057b7e8402d79464c8edf68b1f2ef819,
        type: 3}
      propertyPath: m_LocalRotation.y
      value: 0
      objectReference: {fileID: 0}
    - target: {fileID: -8679921383154817045, guid: 057b7e8402d79464c8edf68b1f2ef819,
        type: 3}
      propertyPath: m_LocalRotation.z
      value: -0
      objectReference: {fileID: 0}
    - target: {fileID: -8679921383154817045, guid: 057b7e8402d79464c8edf68b1f2ef819,
        type: 3}
      propertyPath: m_LocalEulerAnglesHint.x
      value: 0
      objectReference: {fileID: 0}
    - target: {fileID: -8679921383154817045, guid: 057b7e8402d79464c8edf68b1f2ef819,
        type: 3}
      propertyPath: m_LocalEulerAnglesHint.y
      value: 0
      objectReference: {fileID: 0}
    - target: {fileID: -8679921383154817045, guid: 057b7e8402d79464c8edf68b1f2ef819,
        type: 3}
      propertyPath: m_LocalEulerAnglesHint.z
      value: 0
      objectReference: {fileID: 0}
    - target: {fileID: -5279266874776560498, guid: 057b7e8402d79464c8edf68b1f2ef819,
        type: 3}
      propertyPath: m_Materials.Array.data[0]
      value: 
      objectReference: {fileID: 2100000, guid: 402b3305139198949b5770056ea08e43, type: 2}
    - target: {fileID: -5173463534296437290, guid: 057b7e8402d79464c8edf68b1f2ef819,
        type: 3}
      propertyPath: m_LocalScale.x
      value: 0.75076336
      objectReference: {fileID: 0}
    - target: {fileID: -5173463534296437290, guid: 057b7e8402d79464c8edf68b1f2ef819,
        type: 3}
      propertyPath: m_LocalScale.y
      value: 0.75076336
      objectReference: {fileID: 0}
    - target: {fileID: -5173463534296437290, guid: 057b7e8402d79464c8edf68b1f2ef819,
        type: 3}
      propertyPath: m_LocalScale.z
      value: 0.75076336
      objectReference: {fileID: 0}
    - target: {fileID: -5173463534296437290, guid: 057b7e8402d79464c8edf68b1f2ef819,
        type: 3}
      propertyPath: m_LocalPosition.x
      value: 0.307
      objectReference: {fileID: 0}
    - target: {fileID: -5173463534296437290, guid: 057b7e8402d79464c8edf68b1f2ef819,
        type: 3}
      propertyPath: m_LocalPosition.y
      value: -1.258
      objectReference: {fileID: 0}
    - target: {fileID: -5173463534296437290, guid: 057b7e8402d79464c8edf68b1f2ef819,
        type: 3}
      propertyPath: m_LocalPosition.z
      value: -0.013
      objectReference: {fileID: 0}
    - target: {fileID: 919132149155446097, guid: 057b7e8402d79464c8edf68b1f2ef819,
        type: 3}
      propertyPath: m_Name
      value: HAT Variant
      objectReference: {fileID: 0}
    - target: {fileID: 5694059874591286030, guid: 057b7e8402d79464c8edf68b1f2ef819,
        type: 3}
      propertyPath: m_Materials.Array.data[0]
      value: 
      objectReference: {fileID: 2100000, guid: b96cedfaeaa936f419086cdd4d6a0262, type: 2}
    m_RemovedComponents: []
    m_RemovedGameObjects: []
    m_AddedGameObjects: []
    m_AddedComponents: []
  m_SourcePrefab: {fileID: 100100000, guid: 057b7e8402d79464c8edf68b1f2ef819, type: 3}
