%YAML 1.1
%TAG !u! tag:unity3d.com,2011:
--- !u!114 &11400000
MonoBehaviour:
  m_ObjectHideFlags: 0
  m_CorrespondingSourceObject: {fileID: 0}
  m_PrefabInstance: {fileID: 0}
  m_PrefabAsset: {fileID: 0}
  m_GameObject: {fileID: 0}
  m_Enabled: 1
  m_EditorHideFlags: 0
  m_Script: {fileID: 11500000, guid: e9620f8c34305754d8cc9a7e49e852d9, type: 3}
  m_Name: StringTable_de
  m_EditorClassIdentifier: 
  m_LocaleId:
    m_Code: de
  m_SharedData: {fileID: 11400000, guid: 1673a91535c489342a26e888945626a4, type: 2}
  m_Metadata:
    m_Items: []
  m_TableData:
  - m_Id: 35477688320
    m_Localized: "Start\r"
    m_Metadata:
      m_Items: []
  - m_Id: 186871091200
    m_Localized: "Gut Gemacht!\r"
    m_Metadata:
      m_Items: []
  - m_Id: 412524646400
    m_Localized: Zutaten
    m_Metadata:
      m_Items: []
  - m_Id: 553100939264
    m_Localized: Punkte
    m_Metadata:
      m_Items: []
  - m_Id: 7006339633152
    m_Localized: Spielen
    m_Metadata:
      m_Items: []
  references:
    version: 2
    RefIds: []
