%YAML 1.1
%TAG !u! tag:unity3d.com,2011:
--- !u!1045 &1
EditorBuildSettings:
  m_ObjectHideFlags: 0
  serializedVersion: 2
  m_Scenes:
  - enabled: 1
    path: Assets/Scenes/LoaderScene.unity
    guid: 9cea8d1632f4445d8bc68adcee49c083
  - enabled: 0
    path: Assets/Scenes/SampleScene.unity
    guid: 9fc0d4010bbf28b4594072e72b8655ab
  - enabled: 0
    path: Assets/Scenes/SampleME.unity
    guid: 8585b9ff50ca96e40a67a6dfedc773e6
  - enabled: 0
    path: Assets/Scenes/burgerKing.unity
    guid: 6ebb77d081459fd4e9ce7eb28ff9f1d9
  - enabled: 1
    path: Assets/Scenes/burgerKing ui.unity
    guid: c25cc73ee976bee4aa46c38caa566a46
  - enabled: 0
    path: Assets/BanubaFaceAR/BaseAssets/Scenes/MinimalScene.unity
    guid: 4fd5565653d3f4fce8357e42d854d050
  m_configObjects:
    com.unity.addressableassets: {fileID: 11400000, guid: d7503cdd1264fa0489d0c57799106091,
      type: 2}
    com.unity.localization.settings: {fileID: 11400000, guid: e87b9d35722c1cb449a443ccf55a306f,
      type: 2}
